…
    ## # A tibble: 5 x 1
    ##   continent
    ##   <fct>    
    ## 1 Africa   
    ## 2 Americas 
    ## 3 Asia     
    ## 4 Europe   
    ## 5 Oceania

``` r
dataset %>% distinct(country) %>% arrange(country)
```

    ## # A tibble: 142 x 1
    ##    country    
    ##    <fct>      
    ##  1 Afghanistan
    ##  2 Albania    
    ##  3 Algeria    
    ##  4 Angola     
    ##  5 Argentina  
    ##  6 Australia  
    ##  7 Austria    
    ##  8 Bahrain    
    ##  9 Bangladesh 
    ## 10 Belgium    
    ## # ... with 132 more rows
…
#### 2.2 Quality Control

Quality Control (QC) involves checking for errors and missing data that could hinder preliminary visual data exploration and future data analysis (e.g. removing rows with missing data - NAs)

``` r
# 1. is.na(dataset)
#-------------------------------
# the above command echos TRUE for every cell with missing data. The output of this command is and can be too long depending on the number or rows in a dataset - may not be very helpful. It is better to look into other options to get a similar result instead of looking through hundreds or thousands of rows

# 2. To omit rows with missing data:
na.omit(dataset) 
```

    ## # A tibble: 1,704 x 6
    ##    country     continent  year lifeExp      pop gdpPercap
    ##    <fct>       <fct>     <int>   <dbl>    <int>     <dbl>
    ##  1 Afghanistan Asia       1952    28.8  8425333      779.
    ##  2 Afghanistan Asia       1957    30.3  9240934      821.
    ##  3 Afghanistan Asia       1962    32.0 10267083      853.
    ##  4 Afghanistan Asia       1967    34.0 11537966      836.
    ##  5 Afghanistan Asia       1972    36.1 13079460      740.
    ##  6 Afghanistan Asia       1977    38.4 14880372      786.
    ##  7 Afghanistan Asia       1982    39.9 12881816      978.
    ##  8 Afghanistan Asia       1987    40.8 13867957      852.
    ##  9 Afghanistan Asia       1992    41.7 16317921      649.
    ## 10 Afghanistan Asia       1997    41.8 22227415      635.
    ## # ... with 1,694 more rows
…
